{
  "name": "Orion Alliance",
  "email": "info@orion-alliance.com",
  "logo": "/img/orion_logo.png",
  "address": [
    {
      "country": "The Netherlands",
      "city": "Leiden",
      "postalCode": "2333CW",
      "streetAddress": "Bargelaan 200",
      "telephone": "(31) 858-880-256"
    },
    {
      "country": "Latvia",
      "city": "Riga",
      "postalCode": "LV-1001",
      "streetAddress": "Bruninieku iela 12",
      "telephone": "(371) 66-090-579"
    },
    {
      "country": "Poland",
      "city": "Gdynia",
      "postalCode": "81-304",
      "streetAddress": "Slaska 53/B506",
      "telephone": "(48) 587-435-972"
    }
  ],
  "description": "Orion Alliance team provides a full spectrum of software services in accordance with your wishes and strategies. We provide complex analysis and management of IT projects with 24/7 availability."
}
